Categories:Office
License:GPLv3
Web Site:https://mpcjanssen.nl/fossil/simpletask
Source Code:https://gitorious.org/simpletask/android
Issue Tracker:https://mpcjanssen.nl/fossil/simpletask/reportlist

Auto Name:Simpletask
Summary:Todo list manager
Description:
A simple task list manager that strives to have just enough features to do GTD
(the Getting Things Done methodology), but no more.
Based on the [http://todotxt.com todo.txt] app so all info is stored in a
single text file called todo.txt.
Note that, with this version, you will need to take care of backups yourself.

* Todo list stored in the documented todo.txt format
* Comprehensive filtering and multi sort
* Create calendar reminders for specific tasks directly from the app
* Select on or more tasks and press overflow menu->Add reminder
* Share the complete tasklist or selected tasks using the Android share feature
* Tasks can deferred into the future. Combined with the "Creation date in future" sort it allows you to get tasks out of your face (as in 1MTD/MYN)
.

Repo Type:git
Repo:https://gitorious.org/simpletask/android.git

Build:3.2.2-cloudless (unknown),1053
    commit=93a8922b2cd4696f49214ae46b011a1f5d7aadb8
    gradle=cloudless

Build:3.2.3,1054
    commit=3_2_3
    gradle=cloudless

Build:4.0.3,1058
    commit=4_0_3
    gradle=cloudless

Build:4.0.5,1060
    commit=4_0_5
    gradle=cloudless

Build:4.0.7,1062
    commit=4_0_7
    gradle=cloudless

Build:4.0.10,1065
    disable=insists on having old gradle version
    commit=4_0_10
    gradle=cloudless

Build:4.1.1,1067
    commit=3b99936
    gradle=cloudless

Build:4.1.3,1069
    commit=4_1_3
    init=rm libs/*.jar
    gradle=cloudless

Build:4.1.4,1070
    commit=4.1.4
    init=rm libs/*.jar
    gradle=cloudless

Build:4.1.5,1071
    commit=4.1.5
    init=rm libs/*.jar
    gradle=cloudless

Build:4.1.6,1072
    commit=4.1.6
    init=rm libs/*.jar
    gradle=cloudless

Build:4.1.7,1073
    commit=4.1.7
    init=rm libs/*.jar
    gradle=cloudless

Build:4.1.8,1074
    commit=4.1.8
    init=rm libs/*.jar
    gradle=cloudless

Build:4.1.9,1075
    commit=4.1.9
    init=rm libs/*.jar
    gradle=cloudless

Build:4.1.10,1076
    commit=4.1.10
    init=rm libs/*.jar
    gradle=cloudless

Build:4.1.11,1077
    commit=4.1.11
    init=rm libs/*.jar
    gradle=cloudless

Build:4.1.12,1078
    commit=4.1.12
    init=rm libs/*.jar
    gradle=cloudless

Build:4.1.13,1079
    commit=4.1.13
    init=rm libs/*.jar
    gradle=cloudless

Build:4.1.14,1080
    commit=4.1.14
    init=rm libs/*.jar
    gradle=cloudless

Build:4.1.15,1081
    commit=4.1.15
    init=rm libs/*.jar
    gradle=cloudless

Build:4.1.16,1082
    commit=4.1.16
    init=rm libs/*.jar
    gradle=cloudless

Build:4.1.17,1083
    commit=4.1.17
    init=rm libs/*.jar
    gradle=cloudless
    scanignore=pelican

Build:4.1.18,1084
    commit=4.1.18
    init=rm libs/*.jar
    gradle=cloudless
    scanignore=pelican

Build:4.1.19,1085
    commit=4.1.19
    init=rm libs/*.jar
    gradle=cloudless
    scanignore=pelican

Build:4.2.2,1088
    commit=4.2.2
    init=rm libs/*.jar
    gradle=cloudless
    scanignore=pelican

Build:4.2.3,1089
    commit=4.2.3
    init=rm libs/*.jar
    gradle=cloudless
    scanignore=pelican

Build:4.2.4,1090
    commit=4.2.4
    init=rm libs/*.jar
    gradle=cloudless
    scanignore=pelican

Build:4.2.5,1091
    commit=4.2.5
    init=rm libs/*.jar
    gradle=cloudless
    scanignore=pelican

Build:5.0.0RC3,1507
    commit=5.0.0RC3
    init=rm libs/*.jar
    gradle=cloudless
    scanignore=pelican

Build:5.0.1,1509
    commit=5.0.1
    init=rm libs/*.jar
    gradle=cloudless
    scanignore=pelican

Build:5.0.2,1510
    commit=5.0.2
    init=rm libs/*.jar
    gradle=cloudless
    scanignore=pelican

Build:5.0.3,1511
    commit=5.0.3
    init=rm libs/*.jar
    gradle=cloudless
    scanignore=pelican

Build:5.0.4,1512
    commit=5.0.4
    init=rm libs/*.jar
    gradle=cloudless
    scanignore=pelican

Build:5.0.7,1515
    commit=5.0.7
    init=rm libs/*.jar
    gradle=cloudless
    scanignore=pelican

Build:5.0.9,1517
    commit=5.0.9
    init=rm libs/*.jar
    gradle=cloudless
    scanignore=pelican

Auto Update Mode:Version %v
Update Check Mode:Tags
Current Version:5.0.9
Current Version Code:1517

