Public Domain 5
GPL 30
Expat 1
GNUFDL 1
 2
GPLv3+ 112
Unknown 8
GPLv2 80
GPLv3 503
GPL/MPL 1
Apache2 306
NYSLv0.9982 1
EPL 1
PublicDomain 2
X11 1
ISC 3
NetBSD 1
GPL/Artistic 2
AGPL 6
MIT 88
GPLv3 or New BSD 1
CCBYSA 1
WTFPL 11
GNUFDL/CCBYSA 1
CCBYNCSA3 1
Fair License 1
FreeBSD 2
BSD 4
Beer License 2
GPLv2+ 41
Unlicense/Apache2 1
Zlib 2
MPL2 5
MPLv2 3
Artistic Licensev2 1
EUPL 1
LGPLv2.1 2
AGPLv3 12
Apachev2 1
LGPL 13
Custom 1
MPL1.1 1
Apache2,CC-BY-SA 1
MPL 1
NewBSD 30
Unlicense 2
AGPLv3+ 6
BSD/Apache 1
EPLv1 1
LGPLv3 1
NCSA 1
CCBYNC 1
